<?xml version="1.0" encoding="utf-8"?>
<!-- Generator: Adobe Illustrator 16.0.0, SVG Export Plug-In . SVG Version: 6.00 Build 0)  -->
<!DOCTYPE svg PUBLIC "-//W3C//DTD SVG 1.1//EN" "http://www.w3.org/Graphics/SVG/1.1/DTD/svg11.dtd">
<svg version="1.1" id="Layer_1" xmlns="http://www.w3.org/2000/svg" xmlns:xlink="http://www.w3.org/1999/xlink" x="0px" y="0px"
	 width="134.578px" height="114.895px" viewBox="0 0 134.578 114.895" enable-background="new 0 0 134.578 114.895"
	 xml:space="preserve">
<path fill="none" stroke="#30454F" stroke-width="9" stroke-linecap="round" stroke-linejoin="round" stroke-miterlimit="10" d="
	M106.118,13.125C92,6.536,75.154,12.532,68.503,26.518c-0.463,0.97-0.864,2.19-1.215,3.603c-0.351-1.413-0.752-2.633-1.214-3.603
	C59.423,12.532,42.582,6.536,28.459,13.125C14.345,19.712,8.289,36.386,14.94,50.371c6.651,13.986,52.336,54.074,52.336,54.074
	s0.005-0.05,0.011-0.128c0.007,0.078,0.012,0.128,0.012,0.128s45.687-40.088,52.337-54.074
	C126.288,36.386,120.24,19.712,106.118,13.125"/>
</svg>
